Features
…
# murders crime statistics
murders_crime <- read_csv(file = "1_Data/murders_crime.csv")

B - Pima Indians Diabetes

In this section, you will explore feature selection for the Pima Indians Diabetes data set. The Pima are a group of Native Americans living in Arizona. A genetic predisposition allowed this group to survive normally to a diet poor of carbohydrates for years. In the recent years, because of a sudden shift from traditional agricultural crops to processed foods, together with a decline in physical activity, made them develop the highest prevalence of type 2 diabetes. For this reason they have been subject of many studies.

Take a look at the first few rows of the pima diabetes data frame by printing then to the console.

pima_diabetes

# A tibble: 724 x 7
   diabetes pregnant glucose pressure  mass pedigree   age
   <chr>       <dbl>   <dbl>    <dbl> <dbl>    <dbl> <dbl>
 1 pos             6     148       72  33.6    0.627    50
 2 neg             1      85       66  26.6    0.351    31
 3 pos             8     183       64  23.3    0.672    32
 4 neg             1      89       66  28.1    0.167    21
 5 pos             0     137       40  43.1    2.29     33
 6 neg             5     116       74  25.6    0.201    30
 7 pos             3      78       50  31      0.248    26
 8 pos             2     197       70  30.5    0.158    53
 9 neg             4     110       92  37.6    0.191    30
10 pos            10     168       74  38      0.537    34
# … with 714 more rows
…
       'Positive' Class : neg           

You might have observed that the model with two fewer features is actually slightly better than the full model (if this is not the case, keep in mind that the partitioning of the dataset was done randomly, i.e., if you do it a second time, your results may slightly change). Why do you think this is the case?

Play around: Up the proportion dedicated to training or use a different model, e.g., random forest, and see whether things change.

C - Murders

In this section, you will explore feature selection using a different data set. The data combines socio-economic data from the US ’90 Census, data from Law Enforcement Management and Admin Stats survey, and crime data from the FB. The gaol of this section is to use various socio-demographic variables to predict whether murders have been committed (murders), the criterion of this exercise.

Take a look at the first few rows of the murders_crime data frame by printing them to the console.

murders_crime

# A tibble: 1,823 x 102
   murders population householdsize racepctblack racePctWhite racePctAsian
   <chr>        <dbl>         <dbl>        <dbl>        <dbl>        <dbl>
 1 yes          27591          2.63         0.17         94.8         1.6 
 2 yes          36830          2.6         42.4          53.7         0.54
 3 yes          23928          2.6         11.0          81.3         1.78
 4 no           15675          2.59         4.08         84.1         0.54
 5 yes          96086          3.19         8.54         59.8        17.2 
 6 no           48622          2.44         3.14         95.5         0.77
 7 no           10444          3.02         0.41         98.9         0.39
 8 yes         222103          2.49        11.4          82.4         3.77
 9 no           15535          2.35        14.9          84.6         0.32
10 yes          24664          2.73        13.7          85.0         0.53
# … with 1,813 more rows, and 96 more variables: racePctHisp <dbl>,
#   agePct12t21 <dbl>, agePct12t29 <dbl>, agePct16t24 <dbl>,
#   agePct65up <dbl>, numbUrban <dbl>, pctUrban <dbl>, medIncome <dbl>,
#   pctWWage <dbl>, pctWFarmSelf <dbl>, pctWInvInc <dbl>,
#   pctWSocSec <dbl>, pctWPubAsst <dbl>, pctWRetire <dbl>,
#   medFamInc <dbl>, perCapInc <dbl>, whitePerCap <dbl>,
#   blackPerCap <dbl>, indianPerCap <dbl>, AsianPerCap <dbl>,
#   HispPerCap <dbl>, NumUnderPov <dbl>, PctPopUnderPov <dbl>,
#   PctLess9thGrade <dbl>, PctNotHSGrad <dbl>, PctBSorMore <dbl>,
…
